<svg version="1.1" viewBox="0 0 16 16" xmlns="http://www.w3.org/2000/svg">
    <g fill="#2e3436">
        <path d="m15 1h-14v1h14z"/>
        <path d="m15 4h-8v1h8z"/>
        <path d="m3.1782 4.0203v9.7665h2.7383v-9.7665z"/>
        <path d="m15 9.8679h-8v1h8z"/>
        <path d="m15 12.802h-8v1h8z"/>
        <path d="m15 6.934h-8v1h8z"/>
    </g>
</svg>
