<svg version="1.1" viewBox="0 0 16 16" xmlns="http://www.w3.org/2000/svg">
    <g fill="#2e3436">
        <path d="m6 11v1h8v-1z"/>
        <path d="m6 7v1h8v-1z"/>
        <path d="m6 3v1h8v-1z"/>
        <path d="M 4.7,3.5 A 1.3719,1.3719 0 0 1 3.3281,4.8719 1.3719,1.3719 0 0 1 1.9562,3.5 1.3719,1.3719 0 0 1 3.3281,2.1281 1.3719,1.3719 0 0 1 4.7,3.5 Z"/>
        <path d="M 4.7,7.5 A 1.3719,1.3719 0 0 1 3.3281,8.8719 1.3719,1.3719 0 0 1 1.9562,7.5 1.3719,1.3719 0 0 1 3.3281,6.1281 1.3719,1.3719 0 0 1 4.7,7.5 Z"/>
        <path d="M 4.7,11.5 A 1.3719,1.3719 0 0 1 3.3281,12.8719 1.3719,1.3719 0 0 1 1.9562,11.5 1.3719,1.3719 0 0 1 3.3281,10.1281 1.3719,1.3719 0 0 1 4.7,11.5 Z"/>
    </g>
</svg>
