<?xml version="1.0" encoding="UTF-8" standalone="no"?>
<svg
   xmlns:dc="http://purl.org/dc/elements/1.1/"
   xmlns:cc="http://creativecommons.org/ns#"
   xmlns:rdf="http://www.w3.org/1999/02/22-rdf-syntax-ns#"
   xmlns:svg="http://www.w3.org/2000/svg"
   xmlns="http://www.w3.org/2000/svg"
   xmlns:sodipodi="http://sodipodi.sourceforge.net/DTD/sodipodi-0.dtd"
   xmlns:inkscape="http://www.inkscape.org/namespaces/inkscape"
   width="16"
   height="16"
   version="1.1"
   id="svg8"
   sodipodi:docname="org.gnome.gitlab.ilhooq.Bookup-symbolic.svg"
   inkscape:version="0.92.5 (2060ec1f9f, 2020-04-08)">
  <metadata
     id="metadata14">
    <rdf:RDF>
      <cc:Work
         rdf:about="">
        <dc:format>image/svg+xml</dc:format>
        <dc:type
           rdf:resource="http://purl.org/dc/dcmitype/StillImage" />
        <dc:title></dc:title>
      </cc:Work>
    </rdf:RDF>
  </metadata>
  <defs
     id="defs12" />
  <sodipodi:namedview
     pagecolor="#ffffff"
     bordercolor="#666666"
     borderopacity="1"
     objecttolerance="10"
     gridtolerance="10"
     guidetolerance="10"
     inkscape:pageopacity="0"
     inkscape:pageshadow="2"
     inkscape:window-width="1920"
     inkscape:window-height="1015"
     id="namedview10"
     showgrid="false"
     inkscape:zoom="45.254834"
     inkscape:cx="6.1893283"
     inkscape:cy="8.7703075"
     inkscape:window-x="0"
     inkscape:window-y="28"
     inkscape:window-maximized="1"
     inkscape:current-layer="svg8" />
  <path
     id="path6"
     style="opacity:1;fill:#000000;fill-rule:nonzero;stroke:none;stroke-width:0.17566907;stroke-linecap:butt;stroke-linejoin:miter;stroke-miterlimit:10;stroke-dasharray:none"
     d="m 11.263872,9.4211937 c -0.398291,0 -0.722348,-0.3140517 -0.722348,-0.7000446 0,-0.385993 0.324057,-0.7000446 0.722348,-0.7000446 0.39829,0 0.722347,0.3140516 0.722347,0.7000446 0,0.3861659 -0.324057,0.7000446 -0.722347,0.7000446 z m 0,-0.8868154 c -0.106354,0 -0.1929,0.083874 -0.1929,0.1869437 0,0.1030698 0.08655,0.1869437 0.1929,0.1869437 0.106353,0 0.192899,-0.083874 0.192899,-0.1869437 0,-0.1030698 -0.08655,-0.1869437 -0.192899,-0.1869437 z"
     inkscape:connector-curvature="0" />
  <path
     id="path8"
     style="opacity:1;fill:#000000;fill-rule:nonzero;stroke:none;stroke-width:0.17566907;stroke-linecap:butt;stroke-linejoin:miter;stroke-miterlimit:10;stroke-dasharray:none"
     d="M 13.392978,7.0170481 H 13.208644 V 2.4954658 c 0,-0.4473852 -0.375628,-0.8114153 -0.837088,-0.8114153 H 6.3065527 V 0.61063732 c 0,-0.15875517 -0.09761,-0.30090849 -0.2485746,-0.3621278 -0.1459682,-0.059317 -0.3128147,-0.0309555 -0.4293396,0.0715955 L 4.8304521,0.94786234 4.0322657,0.32010499 C 3.9159193,0.21738106 3.7492513,0.18936544 3.602926,0.24850952 3.4519612,0.30990177 3.3543515,0.45205509 3.3543515,0.61063732 V 1.6842234 H 2.8718351 c -0.4616383,0 -0.837266,0.3640301 -0.837266,0.8114153 V 14.970889 c 0,0.447385 0.3756277,0.811242 0.837266,0.811242 h 9.4997209 c 0.461638,0 0.837088,-0.36403 0.837088,-0.811242 v -4.620156 h 0.184334 c 0.31567,0 0.572453,-0.248854 0.572453,-0.5547778 V 7.5719994 c 0,-0.3060965 -0.256783,-0.5549513 -0.572453,-0.5549513 z M 12.679017,2.4954658 V 7.0168752 H 11.762165 V 2.1971513 h 0.609213 c 0.169701,1.73e-4 0.307639,0.1338524 0.307639,0.2983145 z M 3.8836207,0.86398843 4.6095367,1.4348499 c 0.1279454,0.1008216 0.3135286,0.1011675 0.4416524,1.729e-4 L 5.777105,0.86416136 V 1.6842234 H 3.8836207 Z M 2.5640167,14.970716 V 2.4954658 c 0,-0.1644621 0.1381168,-0.2981415 0.3076399,-0.2981415 h 8.3610604 v 4.8197238 h -0.322808 c -0.948437,0 -1.7198566,0.7477749 -1.7198566,1.6669292 0,0.9191544 0.7714196,1.6667557 1.7198566,1.6667557 h 0.322808 v 4.918125 H 2.8716566 c -0.1697016,0 -0.3076399,-0.133853 -0.3076399,-0.298142 z m 10.1150003,0 c 0,0.164289 -0.138116,0.298142 -0.307639,0.298142 h -0.609213 v -4.918125 h 0.916852 z M 10.909909,9.7947447 c -0.632053,0 -1.146333,-0.4984013 -1.146333,-1.1109403 0,-0.612539 0.51428,-1.1109403 1.146333,-1.1109403 l 2.481998,-0.00104 0.0011,2.2229182 z"
     inkscape:connector-curvature="0" />
</svg>
